%YAML 1.1
%TAG !u! tag:unity3d.com,2011:
--- !u!114 &11400000
MonoBehaviour:
  m_ObjectHideFlags: 0
  m_CorrespondingSourceObject: {fileID: 0}
  m_PrefabInstance: {fileID: 0}
  m_PrefabAsset: {fileID: 0}
  m_GameObject: {fileID: 0}
  m_Enabled: 1
  m_EditorHideFlags: 0
  m_Script: {fileID: 11500000, guid: bd7b6d5bc206ca64ab116babec222d65, type: 3}
  m_Name: 02
  m_EditorClassIdentifier: 
  stageBackgroundColor: {r: 1, g: 0.86630595, b: 0.25, a: 1}
  skyBox: {fileID: 2100000, guid: f39f2f0068c086c43b5a9b02d60ce87a, type: 2}
  stageLevelPartColor: {r: 0.5531346, g: 0.1462264, b: 1, a: 1}
  stageDeathPartColor: {r: 0.9725491, g: 1, b: 0, a: 1}
  stageBallColor: {r: 0.97404873, g: 1, b: 0, a: 1}
  levels:
  - partCount: 7
    deathPartCount: 0
  - partCount: 11
    deathPartCount: 5
  - partCount: 7
    deathPartCount: 1
  - partCount: 3
    deathPartCount: 1
  - partCount: 3
    deathPartCount: 3
  - partCount: 3
    deathPartCount: 0
  - partCount: 7
    deathPartCount: 1
  - partCount: 5
    deathPartCount: 6
  - partCount: 6
    deathPartCount: 0
  - partCount: 3
    deathPartCount: 0
  - partCount: 3
    deathPartCount: 2
